#-----------------------------------------------------------
# Vivado v2019.1 (64-bit)
# SW Build 2552052 on Fri May 24 14:49:42 MDT 2019
# IP Build 2548770 on Fri May 24 18:01:18 MDT 2019
# Start of session at: Fri Jan 10 09:41:58 2020
# Process ID: 144
# Current directory: C:/Users/ASUS/Desktop/TRABAJO_SED/trabajosed1920/nuestrotrabajoVHDL/trabajoVHDL
# Command line: vivado.exe -gui_launcher_event rodinguilauncherevent20396 C:\Users\ASUS\Desktop\TRABAJO_SED\trabajosed1920\nuestrotrabajoVHDL\trabajoVHDL\trabajoVHDL.xpr
# Log file: C:/Users/ASUS/Desktop/TRABAJO_SED/trabajosed1920/nuestrotrabajoVHDL/trabajoVHDL/vivado.log
# Journal file: C:/Users/ASUS/Desktop/TRABAJO_SED/trabajosed1920/nuestrotrabajoVHDL/trabajoVHDL\vivado.jou
#-----------------------------------------------------------
start_gui
open_project C:/Users/ASUS/Desktop/TRABAJO_SED/trabajosed1920/nuestrotrabajoVHDL/trabajoVHDL/trabajoVHDL.xpr
ScScanning sources...
Finished scanning sourceININFO: [IP_Flow 19-234] Refreshing IP repositories
INFO: [IP_Flow 19-1704] No user IP repositories specifieINFO: [IP_Flow 19-2313] Loaded Vivado IP repository 'D:/Xilinx/Vivado/2019.1/data/ip'.
open_project: Time (s): cpu = 00:00:17 ; elapsed = 00:00:17 . Memory (MB): peak = 734.406 ; gain = 107.578
set_property is_enabled false [get_files  C:/Users/ASUS/Desktop/TRABAJO_SED/trabajosed1920/nuestrotrabajoVHDL/trabajoVHDL/trabajoVHDL.srcs/sources_1/new/Display.vhd]
set_property is_enabled false [get_files  {C:/Users/ASUS/Desktop/TRABAJO_SED/trabajosed1920/nuestrotrabajoVHDL/trabajoVHDL/trabajoVHDL.srcs/sources_1/new/sync_debouncer.vhd C:/Users/ASUS/Desktop/TRABAJO_SED/trabajosed1920/nuestrotrabajoVHDL/trabajoVHDL/trabajoVHDL.srcs/sources_1/new/Counter.vhd C:/Users/ASUS/Desktop/TRABAJO_SED/trabajosed1920/nuestrotrabajoVHDL/trabajoVHDL/trabajoVHDL.srcs/sources_1/new/Debouncer.vhd C:/Users/ASUS/Desktop/TRABAJO_SED/trabajosed1920/nuestrotrabajoVHDL/trabajoVHDL/trabajoVHDL.srcs/sources_1/new/Decoder.vhd C:/Users/ASUS/Desktop/TRABAJO_SED/trabajosed1920/nuestrotrabajoVHDL/trabajoVHDL/trabajoVHDL.srcs/sources_1/new/Display.v C:/Users/ASUS/Desktop/TRABAJO_SED/trabajosed1920/nuestrotrabajoVHDL/trabajoVHDL/trabajoVHDL.srcs/sources_1/new/Div_frec.vhd C:/Users/ASUS/Desktop/TRABAJO_SED/trabajosed1920/nuestrotrabajoVHDL/trabajoVHDL/trabajoVHDL.srcs/sources_1/new/sync.vhd}]
move_files -fileset sim_1 [get_files  C:/Users/ASUS/Desktop/TRABAJO_SED/trabajosed1920/nuestrotrabajoVHDL/trabajoVHDL/trabajoVHDL.srcs/sources_1/new/sync_debouncer.vhd]
set_property is_enabled true [get_files  C:/Users/ASUS/Desktop/TRABAJO_SED/trabajosed1920/nuestrotrabajoVHDL/trabajoVHDL/trabajoVHDL.srcs/sources_1/new/sync_debouncer.vhd]
move_files [get_files  C:/Users/ASUS/Desktop/TRABAJO_SED/trabajosed1920/nuestrotrabajoVHDL/trabajoVHDL/trabajoVHDL.srcs/sources_1/new/sync_debouncer.vhd]
launch_runs synth_1 -jobs 4
[Fri Jan 10 09:45:16 2020] Launched synth_1...
Run output will be captured here: C:/Users/ASUS/Desktop/TRABAJO_SED/trabajosed1920/nuestrotrabajoVHDL/trabajoVHDL/trabajoVHDL.runs/synth_1/runme.log
reset_run synth_1
launch_runs synth_1 -jobs 4
[Fri Jan 10 09:50:27 2020] Launched synth_1...
Run output will be captured here: C:/Users/ASUS/Desktop/TRABAJO_SED/trabajosed1920/nuestrotrabajoVHDL/trabajoVHDL/trabajoVHDL.runs/synth_1/runme.log
launch_runs impl_1 -jobs 4
[Fri Jan 10 09:51:13 2020] Launched impl_1...
Run output will be captured here: C:/Users/ASUS/Desktop/TRABAJO_SED/trabajosed1920/nuestrotrabajoVHDL/trabajoVHDL/trabajoVHDL.runs/impl_1/runme.log
open_run impl_1
INFO: [Device 21-403] Loading part xc7k70tfbv676-1
INFO: [Project 1-479] Netlist was created with Vivado 2019.1
INFO: [Project 1-570] Preparing netlist for logic optimization
INFO: [Timing 38-478] Restoring timing data from binary archive.
INFO: [Timing 38-479] Binary timing data restore complete.
INFO: [Project 1-856] Restoring constraints from binary archive.
INFO: [Project 1-853] Binary constraint restore complete.
Reading XDEF placement.
Reading placer database...
Reading XDEF routing.
Read XDEF File: Time (s): cpu = 00:00:00 ; elapsed = 00:00:00.032 . Memory (MB): peak = 1717.969 ; gain = 0.000
Restored from archive | CPU: 0.000000 secs | Memory: 0.000000 MB |
Finished XDEF File Restore: Time (s): cpu = 00:00:00 ; elapsed = 00:00:00.032 . Memory (MB): peak = 1717.969 ; gain = 0.000
Netlist sorting complete. Time (s): cpu = 00:00:00 ; elapsed = 00:00:00 . Memory (MB): peak = 1717.969 ; gain = 0.000
INFO: [Project 1-111] Unisim Transformation Summary:
No Unisim elements were transformed.

open_run: Time (s): cpu = 00:00:27 ; elapsed = 00:00:22 . Memory (MB): peak = 1867.293 ; gain = 510.020
WARNING: [Timing 38-313] There are no user specified timing constraints. Timing constraints are needed for proper timing analysis.
exit
INFO: [Common 17-206] Exiting Vivado at Fri Jan 10 10:53:08 2020...
