#-----------------------------------------------------------
# Webtalk v2019.1 (64-bit)
# SW Build 2552052 on Fri May 24 14:49:42 MDT 2019
# IP Build 2548770 on Fri May 24 18:01:18 MDT 2019
# Start of session at: Sat Jan 18 13:15:09 2020
# Process ID: 27640
# Current directory: C:/Users/Gibso/Desktop/pruebabloque_decoder/pruebabloque_decoder.sim/sim_1/behav/xsim
# Command line: wbtcv.exe -mode batch -source C:/Users/Gibso/Desktop/pruebabloque_decoder/pruebabloque_decoder.sim/sim_1/behav/xsim/xsim.dir/Decoder_tb_behav/webtalk/xsim_webtalk.tcl -notrace
# Log file: C:/Users/Gibso/Desktop/pruebabloque_decoder/pruebabloque_decoder.sim/sim_1/behav/xsim/webtalk.log
# Journal file: C:/Users/Gibso/Desktop/pruebabloque_decoder/pruebabloque_decoder.sim/sim_1/behav/xsim\webtalk.jou
#-----------------------------------------------------------
source C:/Users/Gibso/Desktop/pruebabloque_decoder/pruebabloque_decoder.sim/sim_1/behav/xsim/xsim.dir/Decoder_tb_behav/webtalk/xsim_webtalk.tcl -notrace
INFO: [Common 17-186] 'C:/Users/Gibso/Desktop/pruebabloque_decoder/pruebabloque_decoder.sim/sim_1/behav/xsim/xsim.dir/Decoder_tb_behav/webtalk/usage_statistics_ext_xsim.xml' has been successfully sent to Xilinx on Sat Jan 18 13:15:12 2020. For additional details about this file, please refer to the WebTalk help file at C:/Xilinx/Vivado/2019.1/doc/webtalk_introduction.html.
INFO: [Common 17-206] Exiting Webtalk at Sat Jan 18 13:15:12 2020...
